[gd_scene load_steps=2 format=2]

[ext_resource path="res://packed_scenes/projectiles/Projectile.tscn" type="PackedScene" id=1]

[node name="PlayerProjectile" instance=ExtResource( 1 )]

[node name="Area2D" parent="." index="1"]
collision_layer = 4
collision_mask = 2
