[gd_resource type="AtlasTexture" load_steps=2 format=2]

[ext_resource path="res://sprites/tileset_0001.png" type="Texture" id=1]

[resource]
atlas = ExtResource( 1 )
region = Rect2( 32, 16, 16, 16 )
